{
  "message": "Success",
  "status": 200,
  "Result": [
    {
      "tvv_video": "ye rishte hain pyar ke.mp4",
      "cat_image": "drama1575344898.jpg",
      "tvs_name": "ye rishte hain pyar ke",
      "tvs_image": "http://gotstar.divinetechs.com/assets/images/serial/Yeh-Rishtey-Hain-Pyaar-Ke-1.jpg",
      "tvv_video_type": "Server Video",
      "tvv_video_url": "",
      "v_type": "tv",
      "tvs_id": "49",
      "tvv_web_img": null,
      "tvv_download": "0",
      "type": "tv",
      "c_status": "enable",
      "cat_name": "Drama",
      "tvv_description": "In this spin-off of Yeh Rishta Kya Kehlata Hai, watch Mishti, Naira's cousin, question the age-old concepts of arranged marriages, relationships and love.",
      "tvv_id": "73",
      "tvv_view": "125",
      "tvv_date": "2019-09-16 05:22:03",
      "fc_id": "1",
      "tvs_date": "2019-09-01 11:03:13",
      "tvs_view": "25",
      "c_id": "1",
      "c_date": "2019-12-03 03:48:18",
      "tvv_thumbnail": "http://gotstar.divinetechs.com/assets/images/serial/Yeh-Rishtey-Hain-Pyaar-Ke-1.jpg",
      "tvv_name": "ye rishte hain pyar ke - Episode 1",
      "ftvs_id": "49",
      "is_premium": "0"
    },
    {
      "tvv_video": "ye rishte hain pyar ke.mp4",
      "cat_image": "drama1575344898.jpg",
      "tvs_name": "ye rishte hain pyar ke",
      "tvs_image": "http://gotstar.divinetechs.com/assets/images/serial/Yeh-Rishtey-Hain-Pyaar-Ke-1.jpg",
      "tvv_video_type": "Server Video",
      "tvv_video_url": "",
      "v_type": "tv",
      "tvs_id": "49",
      "tvv_web_img": null,
      "tvv_download": "0",
      "type": "tv",
      "c_status": "enable",
      "cat_name": "Drama",
      "tvv_description": "Kuhu leaves Mishti teary-eyed for interfering in her life while Varsha confronts Kuhu about her marriage. Later, Mishti cancels her date with Abir.",
      "tvv_id": "75",
      "tvv_view": "120",
      "tvv_date": "2019-09-16 05:21:47",
      "fc_id": "1",
      "tvs_date": "2019-09-01 11:03:13",
      "tvs_view": "25",
      "c_id": "1",
      "c_date": "2019-12-03 03:48:18",
      "tvv_thumbnail": "http://gotstar.divinetechs.com/assets/images/serial/4.jpg",
      "tvv_name": "ye rishte hain pyar ke - Episode 3",
      "ftvs_id": "49",
      "is_premium": "1"
    },
    {
      "tvv_video": "ye rishte hain pyar ke.mp4",
      "cat_image": "drama1575344898.jpg",
      "tvs_name": "ye rishte hain pyar ke",
      "tvs_image": "http://gotstar.divinetechs.com/assets/images/serial/Yeh-Rishtey-Hain-Pyaar-Ke-1.jpg",
      "tvv_video_type": "Server Video",
      "tvv_video_url": "",
      "v_type": "tv",
      "tvs_id": "49",
      "tvv_web_img": null,
      "tvv_download": "0",
      "type": "tv",
      "c_status": "enable",
      "cat_name": "Drama",
      "tvv_description": "Mishti is taken aback by Abir's romantic surprise while Kuhu threatens to spread rumours about Kunal. Later, Abir has a unique challenge for Mishti.",
      "tvv_id": "74",
      "tvv_view": "90",
      "tvv_date": "2019-09-16 05:18:33",
      "fc_id": "1",
      "tvs_date": "2019-09-01 11:03:13",
      "tvs_view": "25",
      "c_id": "1",
      "c_date": "2019-12-03 03:48:18",
      "tvv_thumbnail": "http://gotstar.divinetechs.com/assets/images/serial/2.jpg",
      "tvv_name": "ye rishte hain pyar ke - Episode 2",
      "ftvs_id": "49",
      "is_premium": "1"
    },
    {
      "tvv_video": "ye rishte hain pyar ke.mp4",
      "cat_image": "drama1575344898.jpg",
      "tvs_name": "ye rishte hain pyar ke",
      "tvs_image": "http://gotstar.divinetechs.com/assets/images/serial/Yeh-Rishtey-Hain-Pyaar-Ke-1.jpg",
      "tvv_video_type": "Server Video",
      "tvv_video_url": "",
      "v_type": "tv",
      "tvs_id": "49",
      "tvv_web_img": null,
      "tvv_download": "0",
      "type": "tv",
      "c_status": "enable",
      "cat_name": "Drama",
      "tvv_description": "Kuhu leaves Mishti teary-eyed for interfering in her life while Varsha confronts Kuhu about her marriage. Later, Mishti cancels her date with Abir.",
      "tvv_id": "76",
      "tvv_view": "45",
      "tvv_date": "2019-09-01 11:17:07",
      "fc_id": "1",
      "tvs_date": "2019-09-01 11:03:13",
      "tvs_view": "25",
      "c_id": "1",
      "c_date": "2019-12-03 03:48:18",
      "tvv_thumbnail": "http://gotstar.divinetechs.com/assets/images/serial/5.jpg",
      "tvv_name": "ye rishte hain pyar ke - Episode 4",
      "ftvs_id": "49",
      "is_premium": "0"
    },
    {
      "tvv_video": "",
      "cat_image": "drama1575344898.jpg",
      "tvs_name": "yeh rishta kya kehlata hai",
      "tvs_image": "http://gotstar.divinetechs.com/assets/images/serial/ye_5.jpg",
      "tvv_video_type": "Server Video",
      "tvv_video_url": "",
      "v_type": "tv",
      "tvs_id": "50",
      "tvv_web_img": null,
      "tvv_download": "0",
      "type": "tv",
      "c_status": "enable",
      "cat_name": "Drama",
      "tvv_description": "gg",
      "tvv_id": "153",
      "tvv_view": "0",
      "tvv_date": "2019-12-06 06:38:46",
      "fc_id": "1",
      "tvs_date": "2019-09-01 11:22:21",
      "tvs_view": "65",
      "c_id": "1",
      "c_date": "2019-12-03 03:48:18",
      "tvv_thumbnail": "http://gotstar.divinetechs.com/assets/images/serial/new_11575614326.php",
      "tvv_name": "Episode",
      "ftvs_id": "50",
      "is_premium": "0"
    }
  ]
}
