{
    "status": 200,
    "Result": [
        {
            "tvs_id": "52",
            "tvs_image": "http://gotstar.divinetechs.com/assets/images/serial/620x330_nach-baliye-9-written-update-27th-july-2019-the-first-performance-of-jodis.jpg",
            "tvv_web_img": null,
            "tvs_view": "0",
            "tvs_date": "2019-09-01 11:47:02",
            "fc_id": "2",
            "type": "tv",
            "tvs_name": "Nach baliye"
        },
        {
            "tvs_id": "53",
            "tvs_image": "http://gotstar.divinetechs.com/assets/images/serial/Sa-Re-Ga-Ma-Pa-Lil-Champs-2019-Grand-Premiere.jpg",
            "tvv_web_img": null,
            "tvs_view": "0",
            "tvs_date": "2019-09-01 11:58:29",
            "fc_id": "2",
            "type": "tv",
            "tvs_name": "Little Champs"
        }
    ],
    "message": "Success"
}
