{
  "message": "Success",
  "Result": [
    {
      "is_premium": "0",
      "status": "enable",
      "id": "19",
      "channel_name": "NBC News",
      "channel_desc": "NBC News",
      "channel_view": "0",
      "channel_url": "https://ndtv24x7elemarchana.akamaized.net/hls/live/2003678/ndtv24x7/ndtv24x7master.m3u8",
      "channel_image": "https://www.divinetechs.com/envato/app/GotStar/assets/images/serial/og-nbcnews1200x630.png"
    },
    {
      "is_premium": "0",
      "status": "enable",
      "id": "20",
      "channel_name": "Sports",
      "channel_desc": "Sports news",
      "channel_view": "0",
      "channel_url": "https://ndtv24x7elemarchana.akamaized.net/hls/live/2003678/ndtv24x7/ndtv24x7master.m3u8",
      "channel_image": "https://www.divinetechs.com/envato/app/GotStar/assets/images/serial/sport_093234.jpeg"
    },
    {
      "is_premium": "0",
      "status": "enable",
      "id": "21",
      "channel_name": "BBC News",
      "channel_desc": "BBC news",
      "channel_view": "0",
      "channel_url": "https://ndtv24x7elemarchana.akamaized.net/hls/live/2003678/ndtv24x7/ndtv24x7master.m3u8",
      "channel_image": "https://www.divinetechs.com/envato/app/GotStar/assets/images/serial/bbc_one_897908.png"
    },
    {
      "is_premium": "0",
      "status": "enable",
      "id": "22",
      "channel_name": "News live",
      "channel_desc": "News live channel Description",
      "channel_view": "0",
      "channel_url": "https://ndtv24x7elemarchana.akamaized.net/hls/live/2003678/ndtv24x7/ndtv24x7master.m3u8",
      "channel_image": "https://www.divinetechs.com/envato/app/GotStar/assets/images/serial/All-the-Private-and-Govt-Schools-will-be-opened-on-21-02-2019.png"
    },
    {
      "is_premium": "0",
      "status": "enable",
      "id": "23",
      "channel_name": "BBC One",
      "channel_desc": "BBC One is news channel ",
      "channel_view": "0",
      "channel_url": "https://ndtv24x7elemarchana.akamaized.net/hls/live/2003678/ndtv24x7/ndtv24x7master.m3u8",
      "channel_image": "https://www.divinetechs.com/envato/app/GotStar/assets/images/serial/bbc_one_897908.png"
    },
    {
      "is_premium": "0",
      "status": "enable",
      "id": "24",
      "channel_name": "Manifest News",
      "channel_desc": "Manifest News is news channel ",
      "channel_view": "0",
      "channel_url": "http://gotstar.divinetechs.com/assets/images/channel/sl.m3u8",
      "channel_image": "https://www.divinetechs.com/envato/app/GotStar/assets/images/serial/bbc_one_897908.png"
    },
    {
      "is_premium": "0",
      "status": "enable",
      "id": "27",
      "channel_name": "dw",
      "channel_desc": "DW",
      "channel_view": "0",
      "channel_url": "https://dwstream4-lh.akamaihd.net/i/dwstream4_live@131329/master.m3u8",
      "channel_image": "https://www.divinetechs.com/envato/app/GotStar/assets/images/serial/download1576537829.png"
    },
    {
      "is_premium": "0",
      "status": "enable",
      "id": "28",
      "channel_name": "Aden",
      "channel_desc": "Aden Testin Channel",
      "channel_view": "0",
      "channel_url": "https://rt-usa.secure.footprint.net/1105.m3u8?fluxustv.m3u8",
      "channel_image": "https://www.divinetechs.com/envato/app/GotStar/assets/images/serial/bbc_one_897908.png"
    }
  ],
  "status": 200
}
